<?xml version="1.0" encoding="UTF-8" standalone="no"?>
<!DOCTYPE svg PUBLIC "-//W3C//DTD SVG 1.1//EN"
 "http://www.w3.org/Graphics/SVG/1.1/DTD/svg11.dtd">
<!-- Generated by graphviz version 2.40.1 (20161225.0304)
 -->
<!-- Title: reset_password_requests Pages: 1 -->
<svg width="454pt" height="712pt"
 viewBox="0.00 0.00 453.50 712.00" xmlns="http://www.w3.org/2000/svg" xmlns:xlink="http://www.w3.org/1999/xlink">
<g id="graph0" class="graph" transform="scale(1 1) rotate(0) translate(4 708)">
<title>reset_password_requests</title>
<polygon fill="#ffffff" stroke="transparent" points="-4,4 -4,-708 449.5,-708 449.5,4 -4,4"/>
<!-- reset_password_requests -->
<g id="node1" class="node">
<title>reset_password_requests</title>
<polygon fill="#efefef" stroke="transparent" points="46.5,-622.5 46.5,-657.5 363.5,-657.5 363.5,-622.5 46.5,-622.5"/>
<polygon fill="none" stroke="#000000" points="46.5,-622.5 46.5,-657.5 363.5,-657.5 363.5,-622.5 46.5,-622.5"/>
<text text-anchor="start" x="53.3483" y="-635.3" font-family="Arial Bold" font-size="18.00" fill="#000000">reset_password_requests</text>
<text text-anchor="start" x="259.3979" y="-635.3" font-family="Arial" font-size="14.00" fill="#000000"> </text>
<text text-anchor="start" x="263.2885" y="-635.3" font-family="Arial" font-size="14.00" fill="#666666">[BASE TABLE]</text>
<polygon fill="none" stroke="#000000" points="46.5,-592.5 46.5,-622.5 363.5,-622.5 363.5,-592.5 46.5,-592.5"/>
<text text-anchor="start" x="53.5" y="-603.9" font-family="Arial" font-size="14.00" fill="#000000">id </text>
<text text-anchor="start" x="68.2798" y="-603.9" font-family="Arial" font-size="14.00" fill="#666666">[int unsigned]</text>
<polygon fill="none" stroke="#000000" points="46.5,-562.5 46.5,-592.5 363.5,-592.5 363.5,-562.5 46.5,-562.5"/>
<text text-anchor="start" x="53.5" y="-573.9" font-family="Arial" font-size="14.00" fill="#000000">token </text>
<text text-anchor="start" x="91.629" y="-573.9" font-family="Arial" font-size="14.00" fill="#666666">[varchar(255)]</text>
<polygon fill="none" stroke="#000000" points="46.5,-532.5 46.5,-562.5 363.5,-562.5 363.5,-532.5 46.5,-532.5"/>
<text text-anchor="start" x="53.5" y="-543.9" font-family="Arial" font-size="14.00" fill="#000000">expired_at </text>
<text text-anchor="start" x="122.744" y="-543.9" font-family="Arial" font-size="14.00" fill="#666666">[timestamp]</text>
<polygon fill="none" stroke="#000000" points="46.5,-502.5 46.5,-532.5 363.5,-532.5 363.5,-502.5 46.5,-502.5"/>
<text text-anchor="start" x="53.5" y="-513.9" font-family="Arial" font-size="14.00" fill="#000000">created_at </text>
<text text-anchor="start" x="123.528" y="-513.9" font-family="Arial" font-size="14.00" fill="#666666">[timestamp(6)]</text>
<polygon fill="none" stroke="#000000" points="46.5,-472.5 46.5,-502.5 363.5,-502.5 363.5,-472.5 46.5,-472.5"/>
<text text-anchor="start" x="53.5" y="-483.9" font-family="Arial" font-size="14.00" fill="#000000">user_id </text>
<text text-anchor="start" x="103.2882" y="-483.9" font-family="Arial" font-size="14.00" fill="#666666">[int unsigned]</text>
<polygon fill="none" stroke="#000000" stroke-width="3" points="44.5,-471.5 44.5,-659.5 364.5,-659.5 364.5,-471.5 44.5,-471.5"/>
</g>
<!-- users -->
<g id="node2" class="node">
<title>users</title>
<polygon fill="#efefef" stroke="transparent" points="116.5,-312.5 116.5,-347.5 293.5,-347.5 293.5,-312.5 116.5,-312.5"/>
<polygon fill="none" stroke="#000000" points="116.5,-312.5 116.5,-347.5 293.5,-347.5 293.5,-312.5 116.5,-312.5"/>
<text text-anchor="start" x="134.3708" y="-325.3" font-family="Arial Bold" font-size="18.00" fill="#000000">users</text>
<text text-anchor="start" x="178.3754" y="-325.3" font-family="Arial" font-size="14.00" fill="#000000"> </text>
<text text-anchor="start" x="182.266" y="-325.3" font-family="Arial" font-size="14.00" fill="#666666">[BASE TABLE]</text>
<polygon fill="none" stroke="#000000" points="116.5,-282.5 116.5,-312.5 293.5,-312.5 293.5,-282.5 116.5,-282.5"/>
<text text-anchor="start" x="123.5" y="-293.9" font-family="Arial" font-size="14.00" fill="#000000">id </text>
<text text-anchor="start" x="138.2798" y="-293.9" font-family="Arial" font-size="14.00" fill="#666666">[int unsigned]</text>
<polygon fill="none" stroke="#000000" points="116.5,-252.5 116.5,-282.5 293.5,-282.5 293.5,-252.5 116.5,-252.5"/>
<text text-anchor="start" x="123.5" y="-263.9" font-family="Arial" font-size="14.00" fill="#000000">avatar_url </text>
<text text-anchor="start" x="189.622" y="-263.9" font-family="Arial" font-size="14.00" fill="#666666">[varchar(255)]</text>
<polygon fill="none" stroke="#000000" points="116.5,-222.5 116.5,-252.5 293.5,-252.5 293.5,-222.5 116.5,-222.5"/>
<text text-anchor="start" x="123.5" y="-233.9" font-family="Arial" font-size="14.00" fill="#000000">org_email </text>
<text text-anchor="start" x="188.838" y="-233.9" font-family="Arial" font-size="14.00" fill="#666666">[varchar(255)]</text>
<polygon fill="none" stroke="#000000" points="116.5,-192.5 116.5,-222.5 293.5,-222.5 293.5,-192.5 116.5,-192.5"/>
<text text-anchor="start" x="123.5" y="-203.9" font-family="Arial" font-size="14.00" fill="#000000">role_id </text>
<text text-anchor="start" x="169.3948" y="-203.9" font-family="Arial" font-size="14.00" fill="#666666">[int unsigned]</text>
<polygon fill="none" stroke="#000000" points="116.5,-162.5 116.5,-192.5 293.5,-192.5 293.5,-162.5 116.5,-162.5"/>
<text text-anchor="start" x="123.5" y="-173.9" font-family="Arial" font-size="14.00" fill="#000000">password </text>
<text text-anchor="start" x="187.2882" y="-173.9" font-family="Arial" font-size="14.00" fill="#666666">[char(60)]</text>
<polygon fill="none" stroke="#000000" points="116.5,-132.5 116.5,-162.5 293.5,-162.5 293.5,-132.5 116.5,-132.5"/>
<text text-anchor="start" x="123.5" y="-143.9" font-family="Arial" font-size="14.00" fill="#000000">last_login_at </text>
<text text-anchor="start" x="205.9698" y="-143.9" font-family="Arial" font-size="14.00" fill="#666666">[timestamp]</text>
<polygon fill="none" stroke="#000000" points="116.5,-102.5 116.5,-132.5 293.5,-132.5 293.5,-102.5 116.5,-102.5"/>
<text text-anchor="start" x="123.5" y="-113.9" font-family="Arial" font-size="14.00" fill="#000000">is_email_verified </text>
<text text-anchor="start" x="231.6136" y="-113.9" font-family="Arial" font-size="14.00" fill="#666666">[tinyint]</text>
<polygon fill="none" stroke="#000000" points="116.5,-72.5 116.5,-102.5 293.5,-102.5 293.5,-72.5 116.5,-72.5"/>
<text text-anchor="start" x="123.5" y="-83.9" font-family="Arial" font-size="14.00" fill="#000000">created_at </text>
<text text-anchor="start" x="193.528" y="-83.9" font-family="Arial" font-size="14.00" fill="#666666">[timestamp(6)]</text>
<polygon fill="none" stroke="#000000" points="116.5,-42.5 116.5,-72.5 293.5,-72.5 293.5,-42.5 116.5,-42.5"/>
<text text-anchor="start" x="123.3128" y="-53.9" font-family="Arial" font-size="14.00" fill="#000000">updated_at </text>
<text text-anchor="start" x="197.2454" y="-53.9" font-family="Arial" font-size="14.00" fill="#666666">[timestamp(6)]</text>
</g>
<!-- reset_password_requests&#45;&gt;users -->
<g id="edge1" class="edge">
<title>reset_password_requests:user_id&#45;&gt;users:id</title>
<path fill="none" stroke="#000000" d="M204.5914,-462.5037C196.5004,-421.4383 136.6321,-436.7333 116.5,-391 99.7574,-352.9665 74.9444,-297.5 116.5,-297.5"/>
<polygon fill="#000000" stroke="#000000" points="204.5947,-462.5411 201.0185,-472.9074 205.0474,-467.5205 205.5,-472.5 205.5,-472.5 205.5,-472.5 205.0474,-467.5205 209.9815,-472.0926 204.5947,-462.5411 204.5947,-462.5411"/>
<text text-anchor="start" x="212.445" y="-482.5" font-family="Arial" font-size="10.00" fill="#000000">FOREIGN KEY (user_id) REFERENCES users (id)</text>
</g>
</g>
</svg>
